{
    "KPackageStructure": "KSysguard/SensorFace",
    "KPlugin": {
        "Authors": [
            {
                "Email": "ahiemstra@heimr.nl",
                "Name": "Arjen Hiemstra",
                "Name[bg]": "Arjen Hiemstra",
                "Name[ca@valencia]": "Arjen Hiemstra",
                "Name[ca]": "Arjen Hiemstra",
                "Name[cs]": "Arjen Hiemstra",
                "Name[de]": "Arjen Hiemstra",
                "Name[en_GB]": "Arjen Hiemstra",
                "Name[eo]": "Arjen Hiemstra",
                "Name[es]": "Arjen Hiemstra",
                "Name[eu]": "Arjen Hiemstra",
                "Name[fi]": "Arjen Hiemstra",
                "Name[fr]": "Arjen Hiemstra",
                "Name[gl]": "Arjen Hiemstra",
                "Name[ia]": "Arjen Hiemstra",
                "Name[it]": "Arjen Hiemstra",
                "Name[ka]": "Arjen Hiemstra",
                "Name[nl]": "Arjen Hiemstra",
                "Name[nn]": "Arjen Hiemstra",
                "Name[pl]": "Arjen Hiemstra",
                "Name[sk]": "Arjen Hiemstra",
                "Name[sl]": "Arjen Hiemstra",
                "Name[tr]": "Arjen Hiemstra",
                "Name[uk]": "Arjen Hiemstra",
                "Name[x-test]": "xxArjen Hiemstraxx",
                "Name[zh_CN]": "Arjen Hiemstra"
            }
        ],
        "Id": "org.kde.ksysguard.facegrid",
        "License": "LGPLv2+",
        "Name": "Grid",
        "Name[bg]": "Координатна мрежа",
        "Name[ca@valencia]": "Quadrícula",
        "Name[ca]": "Quadrícula",
        "Name[cs]": "Mřížka",
        "Name[de]": "Gitter",
        "Name[en_GB]": "Grid",
        "Name[eo]": "Krado",
        "Name[es]": "Cuadrícula",
        "Name[eu]": "Sareta",
        "Name[fi]": "Ruudukko",
        "Name[fr]": "Grille",
        "Name[gl]": "Grade",
        "Name[ia]": "Grillia",
        "Name[it]": "Griglia",
        "Name[ka]": "ბადე",
        "Name[nl]": "Raster",
        "Name[nn]": "Rutenett",
        "Name[pl]": "Siatka",
        "Name[sk]": "\tMriežka",
        "Name[sl]": "Mreža",
        "Name[tr]": "Izgara",
        "Name[uk]": "Ґратка",
        "Name[x-test]": "xxGridxx",
        "Name[zh_CN]": "网格",
        "Version": "1.0",
        "Website": "https://kde.org"
    },
    "X-KDE-ParentApp": "org.kde.plasmashell"
}
