{
    "KPackageStructure": "KSysguard/SensorFace",
    "KPlugin": {
        "Authors": [
            {
                "Email": "mart@kde.org",
                "Name": "Marco Martin",
                "Name[ar]": "Marco Martin",
                "Name[ast]": "Marco Martin",
                "Name[az]": "Marco Martin",
                "Name[bg]": "Marco Martin",
                "Name[ca@valencia]": "Marco Martin",
                "Name[ca]": "Marco Martin",
                "Name[cs]": "Marco Martin",
                "Name[de]": "Marco Martin",
                "Name[en_GB]": "Marco Martin",
                "Name[eo]": "Marco Martin",
                "Name[es]": "Marco Martin",
                "Name[et]": "Marco Martin",
                "Name[eu]": "Marco Martin",
                "Name[fi]": "Marco Martin",
                "Name[fr]": "Marco Martin",
                "Name[gl]": "Marco Martin",
                "Name[hu]": "Marco Martin",
                "Name[ia]": "Marco Martin",
                "Name[it]": "Marco Martin",
                "Name[ka]": "მაკრო მარტინი",
                "Name[ko]": "Marco Martin",
                "Name[lt]": "Marco Martin",
                "Name[nl]": "Marco Martin",
                "Name[nn]": "Marco Martin",
                "Name[pl]": "Marco Martin",
                "Name[pt]": "Marco Martin",
                "Name[pt_BR]": "Marco Martin",
                "Name[ro]": "Marco Martin",
                "Name[ru]": "Marco Martin",
                "Name[sk]": "Marco Martin",
                "Name[sl]": "Marco Martin",
                "Name[sv]": "Marco Martin",
                "Name[tr]": "Marco Martin",
                "Name[uk]": "Marco Martin",
                "Name[vi]": "Marco Martin",
                "Name[x-test]": "xxMarco Martinxx",
                "Name[zh_CN]": "Marco Martin"
            }
        ],
        "Icon": "view-list-text",
        "Id": "org.kde.ksysguard.textonly",
        "License": "LGPLv2+",
        "Name": "Text Only",
        "Name[bg]": "Само текст",
        "Name[ca@valencia]": "Només el text",
        "Name[ca]": "Només el text",
        "Name[cs]": "Pouze text",
        "Name[de]": "Nur Text",
        "Name[en_GB]": "Text Only",
        "Name[eo]": "Nur Teksto",
        "Name[es]": "Solo texto",
        "Name[eu]": "Testua bakarrik",
        "Name[fi]": "Vain teksti",
        "Name[fr]": "Texte seul",
        "Name[gl]": "Só texto",
        "Name[ia]": "Solmente texto",
        "Name[it]": "Solo testo",
        "Name[ka]": "მხოლოდ ტექსტი",
        "Name[nl]": "Alleen tekst",
        "Name[nn]": "Berre tekst",
        "Name[pl]": "Tylko tekst",
        "Name[sk]": "Iba text",
        "Name[sl]": "Samo besedilo",
        "Name[tr]": "Yalnızca Metin",
        "Name[uk]": "Лише текст",
        "Name[x-test]": "xxText Onlyxx",
        "Name[zh_CN]": "仅文字",
        "Version": "1.0",
        "Website": "https://kde.org"
    },
    "X-KDE-ParentApp": "org.kde.plasmashell"
}
